<?xml version="1.0" encoding="UTF-8"?>
<!DOCTYPE suite SYSTEM "http://testng.org/testng-1.0.dtd">
<suite verbose="0" name="Failed suite [Suite]">
  <test name="Test(failed)">
    <classes>
      <class name="com.tmb.SmokeTests.DashBoardTests">
        <methods>
          <include name="setBasicCredentials"/>
          <include name="verifyDeliveryReportType"/>
          <include name="verifyRegistrationsReportType"/>
        </methods>
      </class> <!-- com.tmb.SmokeTests.DashBoardTests -->
    </classes>
  </test> <!-- Test(failed) -->
</suite> <!-- Failed suite [Suite] -->
